{
  "backpack.open": {
    "subtitle": "subtitles.naive_backpacks.backpack.open",
    "sounds": [
      "naive_backpacks:backpack_open"
    ]
  },
  "backpack.close": {
    "subtitle": "subtitles.naive_backpacks.backpack.close",
    "sounds": [
      "naive_backpacks:backpack_close"
    ]
  },
  "backpack.take": {
    "subtitle": "subtitles.naive_backpacks.backpack.take",
    "sounds": [
      "naive_backpacks:backpack_take"
    ]
  }
}