{
  "type": "minecraft:block",
  "pools": [
    {
      "rolls": 1.0,
      "entries": [
        {
          "type": "minecraft:item",
          "name": "naive_backpacks:medium_backpack",
          "functions": [
            {
              "function": "minecraft:copy_nbt",
              "source": "block_entity",
              "ops": [
                {
                  "source": "Backpack",
                  "target": "BlockEntityTag.Backpack",
                  "op": "replace"
                }
              ]
            },
            {
              "function": "minecraft:copy_name",
              "source": "block_entity"
            }
          ]
        }
      ]
    }
  ]
}

