{
  "type": "minecraft:crafting_shaped",
  "key": {
    "I": {
      "item": "minecraft:anvil"
    },
    "i": {
      "item": "minecraft:iron_block"
    },
    "O": {
      "item": "naive_backpacks:advanced_upgrade_template"
    },
    "r": {
      "item": "minecraft:redstone"
    },
    "P": {
      "item": "minecraft:heavy_weighted_pressure_plate"
    }
  },
  "pattern": [
    "riI",
    "O  ",
    "rPP"
  ],
  "result": {
    "item": "naive_backpacks:compressor_upgrade"
  }
}