{
  "type": "minecraft:crafting_shaped",
  "key": {
    "I": {
      "item": "minecraft:iron_ingot"
    },
    "O": {
      "item": "naive_backpacks:upgrade_template"
    },
    "r": {
      "item": "minecraft:redstone"
    },
    "R": {
      "item": "minecraft:redstone_block"
    },
    "#": {
      "item": "minecraft:crafting_table"
    }
  },
  "pattern": [
    "I#I",
    "IOI",
    "rRr"
  ],
  "result": {
    "item": "naive_backpacks:crafting_table_upgrade"
  }
}