{
  "type": "minecraft:crafting_shaped",
  "key": {
    "A": {
      "item": "minecraft:rotten_flesh"
    }
  },
  "pattern": [
    "AA",
    "AA"
  ],
  "result": {
    "item": "naive_backpacks:cloth"
  }
}