{
  "type": "minecraft:crafting_shaped",
  "key": {
    "A": {
      "item": "minecraft:copper_ingot"
    },
    "B": {
      "item": "naive_backpacks:cloth"
    },
    "C": {
      "item": "minecraft:copper_block"
    },
    "D": {
      "item": "minecraft:iron_ingot"
    }
  },
  "pattern": [
    "ADA",
    "BCB",
    "ABA"
  ],
  "result": {
    "item": "naive_backpacks:upgrade_template"
  }
}