{
  "type": "minecraft:crafting_shaped",
  "key": {
    "B": {
      "item": "naive_backpacks:large_backpack"
    },
    "I": {
      "item": "minecraft:diamond"
    }
  },
  "pattern": [
    "III",
    "IBI",
    "III"
  ],
  "result": {
    "item": "naive_backpacks:extra_large_backpack"
  }
}