{
  "type": "minecraft:crafting_shaped",
  "key": {
    "O": {
      "item": "naive_backpacks:advanced_upgrade_template"
    },
    "G": {
      "item": "minecraft:glass"
    },
    "B": {
      "item": "naive_backpacks:exp_storage_upgrade"
    },
    "c": {
      "item": "minecraft:gold_block"
    },
    "C": {
      "item": "minecraft:cauldron"
    }
  },
  "pattern": [
    "BGB",
    "COC",
    "cGc"
  ],
  "result": {
    "item": "naive_backpacks:advanced_exp_storage_upgrade"
  }
}