{
  "required": true,
  "package": "moe.fal.naive_backpacks.mixin.client",
  "compatibilityLevel": "JAVA_17",
  "client": [
    "ExampleClientMixin"
  ],
  "injectors": {
    "defaultRequire": 1
  }
}